{
	"data":
	{
		"endRow":6,
		"firstPage":1,
		"hasNextPage":true,
		"hasPreviousPage":false,
		"isFirstPage":true,
		"isLastPage":false,
		"lastPage":8,
		"list":[{
			"goodsId":"793284885115568128",
			"goodsName":"韩版春秋女士高档刺绣桑蚕丝丝巾 百搭大牌披肩 长款羊毛真丝围巾",
			"goodsPrice":300.00,
			"picAddress":"794343234355593216"},{"goodsId":"793286176638238720",
			"goodsName":"旗袍2017秋新款复古改良时尚桑蚕丝真丝旗袍裙日常长款修身连衣裙",
			"goodsPrice":300.00,
			"picAddress":"811022515353681920"},{"goodsId":"793286913917190144",
			"goodsName":"旗袍2017秋新款复古改良时尚桑蚕丝真丝旗袍裙日常长款修身连衣裙",
			"goodsPrice":300.00,
			"picAddress":"794343944883273728"},{"goodsId":"793287458631450624",
			"goodsName":"旗袍2017秋新款复古改良时尚桑蚕丝真丝旗袍裙日常长款修身连衣裙",
			"goodsPrice":300.00,
			"picAddress":"794344314443399168"},{"goodsId":"793287903303172096",
			"goodsName":"（西冷虹光） 黄绿 110*180  真丝超大雪纺长巾",
			"goodsPrice":599.00,
			"picAddress":"794356573886480384"},{"goodsId":"793296559201583104",
			"goodsName":"2017新款中国风水墨画旗袍 贡缎旗袍 厂家直销 旗袍",
			"goodsPrice":299.00,
			"picAddress":"794349279731777536"}],
			"navigatePages":8,
			"navigatepageNums":[1,2,3,4,5,6,7,8],
			"nextPage":2,
			"orderBy":"",
			"pageNum":1,
			"pageSize":6,
			"pages":34,
			"prePage":0,
			"size":6,
			"startRow":1,
			"total":204
		},
		"httpCode":200,
		"msg":"OK",
		"timestamp":1491361422853
	}
